eurlex: Retrieve data on European Union law in R
…
Now that we have a query, we are ready to run it.

elx_run_query(): Execute SPARQL queries

elx_run_query() sends SPARQL queries to a pre-specified endpoint. The function takes the query string as the main argument, which means you can manually pass it any working SPARQL query (relevant to official EU publications).

results <- elx_run_query(query = query_dir)

# the functions are compatible with piping
# 
# elx_make_query("directive") %>% 
#   elx_run_query()

as_tibble(results)
#> # A tibble: 4,335 x 3
#>   work                                   type                            celex  
#>   <chr>                                  <chr>                           <chr>  
#> 1 http://publications.europa.eu/resourc~ http://publications.europa.eu/~ 31979L~
#> 2 http://publications.europa.eu/resourc~ http://publications.europa.eu/~ 31989L~
#> 3 http://publications.europa.eu/resourc~ http://publications.europa.eu/~ 31984L~
#> 4 http://publications.europa.eu/resourc~ http://publications.europa.eu/~ 31966L~
#> # ... with 4,331 more rows
…
The data is returned in the long format, which means that rows are recycled up to the length of the variable with the most data points. For example, if 20 directives are returned, each with two legal bases, the resulting data.frame will have 40 rows. Some variables, such as dates, contain unexpectedly several entries for some documents. You should always check the number of unique identifiers in the results instead of assuming that each row is a unique observation.

EuroVoc descriptors

EuroVoc is a multilingual thesaurus, keywords from which are used to describe the content of European Union documents. Most resource types that can be retrieved with the pre-defined queries in this package can be accompanied by EuroVoc keywords and these can be retrieved as other variables.

rec_eurovoc <- elx_make_query("recommendation", include_eurovoc = TRUE, limit = 10) %>% 
  elx_run_query() # truncated results for sake of the example

rec_eurovoc %>% 
  select(celex, eurovoc)
#> # A tibble: 10 x 2
#>   celex      eurovoc                      
#>   <chr>      <chr>                        
#> 1 32012H0090 http://eurovoc.europa.eu/1425
#> 2 31962H0816 http://eurovoc.europa.eu/1004
#> 3 31974H0435 http://eurovoc.europa.eu/1085
#> 4 31996H0592 http://eurovoc.europa.eu/1076
#> # ... with 6 more rows

By default, the endpoint returns the EuroVoc concept codes rather than the labels (keywords). The function elx_label_eurovoc() needs to be called to obtain a look-up table with the labels.

eurovoc_lookup <- elx_label_eurovoc(uri_eurovoc = rec_eurovoc$eurovoc)

print(eurovoc_lookup)
#> # A tibble: 9 x 2
#>   eurovoc                       labels         
#>   <chr>                         <chr>          
#> 1 http://eurovoc.europa.eu/1085 France         
#> 2 http://eurovoc.europa.eu/1442 food inspection
#> 3 http://eurovoc.europa.eu/1076 form           
#> 4 http://eurovoc.europa.eu/1318 Germany        
#> # ... with 5 more rows

The results include labels only for unique identifiers, but with dplyr::left_join() it is straightforward to append the labels to the entire dataset.

rec_eurovoc %>% 
  left_join(eurovoc_lookup)
#> Joining, by = "eurovoc"
#> # A tibble: 10 x 5
#>   work                      type                   celex  eurovoc      labels   
#>   <chr>                     <chr>                  <chr>  <chr>        <chr>    
#> 1 http://publications.euro~ http://publications.e~ 32012~ http://euro~ consumer~
#> 2 http://publications.euro~ http://publications.e~ 31962~ http://euro~ welfare  
#> 3 http://publications.euro~ http://publications.e~ 31974~ http://euro~ France   
#> 4 http://publications.euro~ http://publications.e~ 31996~ http://euro~ form     
#> # ... with 6 more rows

As elsewhere in the API, we can tap into the multilingual nature of EU documents also when it comes to the EuroVoc keywords. Moreover, most concepts in the thesaurus are associated with alternative labels; these can be returned as well (separated by a comma).

eurovoc_lookup <- elx_label_eurovoc(uri_eurovoc = rec_eurovoc$eurovoc,
                                    alt_labels = TRUE,
                                    language = "sk")

rec_eurovoc %>% 
  left_join(eurovoc_lookup) %>% 
  select(celex, eurovoc, labels)
#> Joining, by = "eurovoc"
#> # A tibble: 10 x 3
#>   celex    eurovoc              labels                                          
#>   <chr>    <chr>                <chr>                                           
#> 1 32012H0~ http://eurovoc.euro~ informácie pre spotrebitela,vzdelávanie spotreb~
#> 2 31962H0~ http://eurovoc.euro~ blahobyt                                        
#> 3 31974H0~ http://eurovoc.euro~ Francúzska republika,Francúzsko                 
#> 4 31996H0~ http://eurovoc.euro~ formulár                                        
#> # ... with 6 more rows
…
# the function is not vectorized by default
elx_fetch_data(results$work[1],"title")
#> [1] "Council Directive 79/173/EEC of 6 February 1979 on the programme for the acceleration and guidance of collective irrigation works in Corsica"

# we can use purrr::map() to play that role
library(purrr)

dir_titles <- results[1:10,] %>% # take the first 10 directives only to save time
  mutate(title = map_chr(work,elx_fetch_data, "title")) %>% 
  as_tibble() %>% 
  select(celex, title)

print(dir_titles)
#> # A tibble: 10 x 2
#>   celex      title                                                              
#>   <chr>      <chr>                                                              
#> 1 31979L0173 Council Directive 79/173/EEC of 6 February 1979 on the programme f~
#> 2 31989L0194 Council Directive 89/194/EEC of 13 March 1989 amending Directive 6~
#> 3 31984L0378 Council Directive 84/378/EEC of 28 June 1984 amending the Annexes ~
#> 4 31966L0683 Commission Directive 66/683/EEC of 7 November 1966 eliminating all~
#> # ... with 6 more rows
…
We want to know a bit more about the directives from 1970s that are still in force today. Their titles could give us a clue.

dirs_1970_title <- dirs %>% 
  filter(between(as.Date(date), as.Date("1970-01-01"), as.Date("1980-01-01")),
         force == "true") %>% 
  mutate(title = map_chr(work,elx_fetch_data,"title")) %>% 
  as_tibble()

print(dirs_1970_title)
#> # A tibble: 67 x 6
#>   work                 type               celex  date  force title              
#>   <chr>                <chr>              <chr>  <chr> <chr> <chr>              
#> 1 http://publications~ http://publicatio~ 31975~ 1975~ true  Council Directive ~
#> 2 http://publications~ http://publicatio~ 31977~ 1977~ true  First Commission D~
#> 3 http://publications~ http://publicatio~ 31977~ 1977~ true  Council Directive ~
#> 4 http://publications~ http://publicatio~ 31973~ 1973~ true  Council Directive ~
#> # ... with 63 more rows
…
